<svg width="59px" height="57px" viewBox="0 0 59 57" version="1.1" xmlns="http://www.w3.org/2000/svg" xmlns:xlink="http://www.w3.org/1999/xlink">
    <g id="Page-1" stroke="none" stroke-width="1" fill="none" fill-rule="evenodd">
        <g id="Landing" transform="translate(-1001.000000, -1422.000000)">
            <g id="Group-7" transform="translate(0.000000, 1324.000000)">
                <g id="communicate" transform="translate(979.000000, 98.000000)">
                    <g id="Icon-communicate" transform="translate(22.000000, 0.000000)">
                        <g>
                            <path d="M14.2348696,55.4515 C25.0557391,56.959 33.4635652,56.959 44.2844348,55.4515 C51.0331304,54.5115 56.3574783,49.409 57.3383478,42.939 C58.9113913,32.5715 58.914,24.5115 57.3409565,14.144 C56.3574783,7.674 51.0331304,2.5715 44.2844348,1.6315 C33.4635652,0.1215 25.0557391,0.1215 14.2348696,1.6315 C7.48617391,2.5715 2.16182609,7.674 1.18095652,14.144 C-0.392086957,24.5115 -0.392086957,32.5715 1.17834783,42.939 C2.15921739,49.409 7.48617391,54.5115 14.2348696,55.4515" id="Fill-1" fill="#9D88F8"></path>
                            <path d="M29.2922609,13.562 C28.6948696,13.562 28.100087,13.7445 27.6044348,14.107 L17.120087,21.7595 C16.434,22.262 16.0244348,23.0595 16.0244348,23.887 L16.0244348,34.072 C16.0244348,35.5445 17.274,36.742 18.8105217,36.742 L25.6113913,36.742 C25.9609565,36.742 26.2948696,36.877 26.5374783,37.1145 L31.9844348,42.3895 L31.9844348,37.992 C31.9844348,37.302 32.5661739,36.742 33.2887826,36.742 L39.774,36.742 C41.3105217,36.742 42.560087,35.5445 42.560087,34.072 L42.560087,23.887 C42.560087,23.0595 42.1505217,22.262 41.4644348,21.7595 L30.980087,14.107 C30.4844348,13.7445 29.8896522,13.562 29.2922609,13.562 M33.2887826,46.682 C32.9470435,46.682 32.6105217,46.552 32.360087,46.312 L25.0661739,39.242 L18.8105217,39.242 C15.834,39.242 13.4157391,36.9245 13.4157391,34.072 L13.4157391,23.887 C13.4157391,22.282 14.2087826,20.7445 15.5392174,19.772 L26.0209565,12.1195 C27.9461739,10.712 30.6383478,10.712 32.5609565,12.1195 L43.0453043,19.772 C44.3757391,20.7445 45.1687826,22.282 45.1687826,23.887 L45.1687826,34.072 C45.1687826,36.9245 42.7505217,39.242 39.774,39.242 L34.5931304,39.242 L34.5931304,45.432 C34.5931304,45.9395 34.2722609,46.397 33.7844348,46.5895 C33.6226957,46.6495 33.4557391,46.682 33.2887826,46.682" id="Fill-4" fill="#FFFFFF"></path>
                            <path d="M24.4124348,28.54 C24.4124348,29.58 23.535913,30.4225 22.4506957,30.4225 C21.368087,30.4225 20.4889565,29.58 20.4889565,28.54 C20.4889565,27.5025 21.368087,26.66 22.4506957,26.66 C23.535913,26.66 24.4124348,27.5025 24.4124348,28.54" id="Fill-6" fill="#FFFFFF"></path>
                            <path d="M31.2550435,28.54 C31.2550435,29.58 30.375913,30.4225 29.2933043,30.4225 C28.208087,30.4225 27.3289565,29.58 27.3289565,28.54 C27.3289565,27.5025 28.208087,26.66 29.2933043,26.66 C30.375913,26.66 31.2550435,27.5025 31.2550435,28.54" id="Fill-8" fill="#FFFFFF"></path>
                            <path d="M38.0966087,28.54 C38.0966087,29.58 37.2174783,30.4225 36.1348696,30.4225 C35.0496522,30.4225 34.1705217,29.58 34.1705217,28.54 C34.1705217,27.5025 35.0496522,26.66 36.1348696,26.66 C37.2174783,26.66 38.0966087,27.5025 38.0966087,28.54" id="Fill-10" fill="#FFFFFF"></path>
                        </g>
                    </g>
                </g>
            </g>
        </g>
    </g>
</svg>