<svg width="43px" height="48px" viewBox="0 0 43 48" version="1.1" xmlns="http://www.w3.org/2000/svg" xmlns:xlink="http://www.w3.org/1999/xlink">
    <g id="OLD" stroke="none" stroke-width="1" fill="none" fill-rule="evenodd">
        <g id="Features-Copy" transform="translate(-201.000000, -1224.000000)" fill="#49BCFF">
            <path d="M214.190637,1254.99821 L214.190637,1251.16682 L217.260912,1252.93516 L217.249369,1256.76194 L214.190637,1254.99821 Z M214.188329,1263.4945 L217.226284,1265.24672 L217.217051,1268.85937 L214.18602,1267.11406 L214.188329,1263.4945 Z M203.310785,1260.85121 L203.322328,1257.23856 L206.38106,1258.99999 L206.38106,1262.61955 L203.310785,1260.85121 Z M206.383368,1250.5037 L203.345413,1248.75379 L203.356955,1244.927 L206.385677,1246.67231 L206.383368,1250.5037 Z M208.689537,1257.67144 L208.691845,1254.48936 L211.88216,1256.32677 L211.879852,1259.51115 L208.689537,1257.67144 Z M208.689537,1260.32854 L211.879852,1262.16595 L211.877543,1265.7832 L208.687228,1263.94579 L208.689537,1260.32854 Z M203.331562,1253.74564 L203.338487,1251.40629 L206.383368,1253.1608 L206.383368,1256.34288 L203.329253,1254.58376 L203.331562,1253.74564 Z M217.23321,1262.59422 L214.188329,1260.8397 L214.190637,1257.65532 L217.242444,1259.41444 L217.23321,1262.59422 Z M211.884469,1249.83827 L211.88216,1253.66966 L208.691845,1251.83225 L208.694154,1248.00086 L208.894991,1248.11599 L211.884469,1249.83827 Z M218.994578,1251.27504 L213.620443,1248.18046 C213.618135,1248.17816 213.618135,1248.17585 213.615826,1248.17585 L208.117034,1245.00989 L202.784453,1241.93834 C202.428947,1241.73341 201.988028,1241.73111 201.632523,1241.93834 C201.274709,1242.14326 201.055403,1242.52318 201.053095,1242.93302 L201.034627,1249.41 C201.034627,1249.41 201.034627,1249.41231 201.034627,1249.41231 L201.020776,1254.10484 L201,1261.51203 C201,1261.92418 201.219305,1262.3064 201.577119,1262.51133 L217.787244,1271.84343 C217.964997,1271.94704 218.165835,1272 218.364364,1272 C218.562893,1272 218.761422,1271.94704 218.941483,1271.84573 C219.296988,1271.64311 219.518602,1271.26089 219.518602,1270.85104 L219.550921,1259.23484 L219.553229,1258.75362 L219.571697,1252.27203 C219.571697,1251.86218 219.352392,1251.47997 218.994578,1251.27504 Z M208.980405,1234.09366 L222.171042,1226.48154 L236.07269,1234.48739 L222.882053,1242.09721 L208.980405,1234.09366 Z M239.533097,1234.48509 C239.533097,1234.07524 239.313792,1233.69532 238.955978,1233.4881 L222.748161,1224.15369 C222.390347,1223.94877 221.949428,1223.94877 221.591614,1224.15369 L206.094809,1233.09897 C205.739303,1233.3039 205.519998,1233.68381 205.519998,1234.09596 C205.519998,1234.50581 205.739303,1234.88573 206.097117,1235.09065 L222.307242,1244.42505 C222.484995,1244.52867 222.683524,1244.57932 222.884361,1244.57932 C223.08289,1244.57932 223.281419,1244.52867 223.461481,1244.42505 L238.958286,1235.48208 C239.313792,1235.27715 239.533097,1234.89724 239.533097,1234.48509 Z M228.496269,1254.3443 L233.524132,1257.48033 L228.46395,1266.43942 L228.496269,1254.3443 Z M241.645354,1259.8335 L236.617491,1256.69517 L241.677672,1247.73838 L241.645354,1259.8335 Z M239.763945,1246.43515 L234.657594,1255.47253 L229.588178,1252.30887 L239.763945,1246.43515 Z M230.375369,1267.74034 L235.484029,1258.70296 L240.553444,1261.86662 L230.375369,1267.74034 Z M243.974607,1243.23696 C243.963064,1243.0988 243.928437,1242.96756 243.870725,1242.84553 C243.847641,1242.79948 243.829173,1242.75343 243.801471,1242.70968 C243.709132,1242.56923 243.5914,1242.44259 243.443657,1242.35279 C243.434423,1242.34588 243.432115,1242.33667 243.422881,1242.33207 C243.422881,1242.32976 243.420572,1242.32976 243.418264,1242.32976 C243.415955,1242.32746 243.413647,1242.32516 243.411338,1242.32516 C243.245128,1242.23076 243.067375,1242.19392 242.889623,1242.18931 C242.845762,1242.18701 242.806517,1242.19392 242.762656,1242.19852 C242.619531,1242.20773 242.481022,1242.24457 242.349439,1242.30904 C242.324046,1242.32286 242.291727,1242.31595 242.266334,1242.33207 L226.771837,1251.27504 C226.760294,1251.28195 226.753369,1251.29577 226.741826,1251.30267 C226.598701,1251.39247 226.467118,1251.50529 226.370162,1251.65956 C226.365545,1251.66647 226.365545,1251.67568 226.360928,1251.68259 C226.347077,1251.70792 226.344768,1251.73785 226.330917,1251.76318 C226.263972,1251.89903 226.222419,1252.04639 226.213185,1252.20065 C226.213185,1252.22598 226.194717,1252.2444 226.194717,1252.26743 L226.141622,1270.84644 C226.141622,1270.87867 226.164707,1270.9063 226.167016,1270.94084 C226.178558,1271.07669 226.213185,1271.20793 226.270897,1271.32997 C226.293982,1271.37602 226.310141,1271.42207 226.340151,1271.46582 C226.430182,1271.60627 226.550223,1271.73291 226.695657,1271.82271 C226.704891,1271.82961 226.709508,1271.83882 226.718742,1271.84343 C226.718742,1271.84343 226.72105,1271.84343 226.723359,1271.84573 C226.725667,1271.84573 226.727976,1271.84803 226.730284,1271.85034 C226.908037,1271.95165 227.104257,1272 227.295861,1272 C227.330488,1272 227.362807,1271.97467 227.397434,1271.97237 C227.561336,1271.95625 227.725238,1271.93092 227.87298,1271.84343 L227.875289,1271.84343 L243.342084,1262.91657 L243.369786,1262.90275 C243.43904,1262.86361 243.473667,1262.79223 243.531379,1262.73928 C243.614484,1262.6679 243.709132,1262.61494 243.769152,1262.51823 C243.773769,1262.51133 243.773769,1262.50212 243.778386,1262.49521 C243.794546,1262.46758 243.796854,1262.43765 243.810705,1262.41462 C243.877651,1262.27647 243.916895,1262.13141 243.928437,1261.97484 C243.928437,1261.95182 243.946905,1261.93339 243.946905,1261.90807 L244,1243.33136 C244,1243.29682 243.976915,1243.26919 243.974607,1243.23696 Z" id="Fill-1"></path>
        </g>
    </g>
</svg>