<svg width="30px" height="24px" viewBox="0 0 30 24" version="1.1" xmlns="http://www.w3.org/2000/svg" xmlns:xlink="http://www.w3.org/1999/xlink">
    <g id="Symbols" stroke="none" stroke-width="1" fill="none" fill-rule="evenodd">
        <g id="Artboard-1" transform="translate(-10.000000, -162.000000)" fill="#000000">
            <g id="_icon-tutorial_big.svg" transform="translate(10.000000, 162.000000)">
                <g>
                    <path d="M27.8104,20.0826 C27.8104,21.1366 26.9504,21.9966 25.8964,21.9966 L4.5684,21.9966 C3.5144,21.9966 2.6564,21.1366 2.6564,20.0826 L2.6564,4.6486 C2.6564,3.5946 3.5144,2.7346 4.5684,2.7346 L25.8964,2.7346 C26.9504,2.7346 27.8104,3.5946 27.8104,4.6486 L27.8104,20.0826 Z M25.8964,0.7346 L4.5684,0.7346 C2.4124,0.7346 0.6564,2.4906 0.6564,4.6486 L0.6564,20.0826 C0.6564,22.2406 2.4124,23.9966 4.5684,23.9966 L25.8964,23.9966 C28.0544,23.9966 29.8104,22.2406 29.8104,20.0826 L29.8104,4.6486 C29.8104,2.4906 28.0544,0.7346 25.8964,0.7346 Z" id="Fill-9"></path>
                    <path d="M12.9372,7.7408 C12.7392,7.6048 12.4712,7.7448 12.4712,7.9848 L12.4712,16.5668 C12.4712,16.8068 12.7392,16.9488 12.9372,16.8128 L19.1392,12.5228 C19.3112,12.4028 19.3112,12.1488 19.1392,12.0308 L12.9372,7.7408 Z" id="Fill-11"></path>
                </g>
            </g>
        </g>
    </g>
</svg>