<svg width="24px" height="23px" viewBox="0 0 24 23" version="1.1" xmlns="http://www.w3.org/2000/svg" xmlns:xlink="http://www.w3.org/1999/xlink">
    <g id="Symbols" stroke="none" stroke-width="1" fill="none" fill-rule="evenodd">
        <g id="Artboard-1" transform="translate(-11.000000, -203.000000)" fill="#000000">
            <g id="_icon-guides.svg" transform="translate(10.000000, 203.000000)">
                <g>
                    <path d="M19.0808,11.7947 L16.3698,11.7947 C15.3258,11.7947 14.5128,12.0237 13.8918,12.3267 L13.8918,6.5787 C14.1538,6.2747 14.8798,5.6427 16.3698,5.6427 L19.0808,5.6427 L19.0808,11.7947 Z M9.6148,11.7947 L6.9038,11.7947 L6.9038,5.6427 L9.6148,5.6427 C11.1128,5.6427 11.8368,6.2817 12.0918,6.5767 L12.0918,12.3267 C11.4718,12.0237 10.6588,11.7947 9.6148,11.7947 Z M19.9808,3.8427 L16.3698,3.8427 C14.6988,3.8427 13.6338,4.4277 12.9918,4.9687 C12.3508,4.4277 11.2858,3.8427 9.6148,3.8427 L6.0048,3.8427 C5.5068,3.8427 5.1038,4.2457 5.1038,4.7427 L5.1038,12.6947 C5.1038,13.1917 5.5068,13.5947 6.0048,13.5947 L9.6148,13.5947 C11.5138,13.5947 12.1688,14.6197 12.2098,14.6847 C12.2178,14.6987 12.2338,14.7047 12.2438,14.7187 C12.3128,14.8247 12.3998,14.9177 12.5098,14.9867 C12.5498,15.0137 12.5928,15.0257 12.6368,15.0447 C12.6778,15.0627 12.7128,15.0877 12.7568,15.0997 C12.8118,15.1147 12.8688,15.1187 12.9268,15.1227 C12.9488,15.1247 12.9688,15.1407 12.9918,15.1407 C13.0648,15.1407 13.1398,15.1317 13.2148,15.1127 C13.4448,15.0537 13.6258,14.9037 13.7458,14.7127 C13.7528,14.7017 13.7658,14.6977 13.7718,14.6867 C13.8008,14.6427 14.4508,13.5947 16.3698,13.5947 L19.9808,13.5947 C20.4778,13.5947 20.8808,13.1917 20.8808,12.6947 L20.8808,4.7427 C20.8808,4.2457 20.4778,3.8427 19.9808,3.8427 Z" id="Fill-1"></path>
                    <path d="M23.1853,15.4822 C23.1853,15.8982 22.8473,16.2362 22.4313,16.2362 L3.5543,16.2362 C3.1373,16.2362 2.7993,15.8982 2.7993,15.4822 L2.7993,2.5642 C2.7993,2.1492 3.1373,1.8112 3.5543,1.8112 L22.4313,1.8112 C22.8473,1.8112 23.1853,2.1492 23.1853,2.5652 L23.1853,15.4822 Z M22.4313,0.0112 L3.5543,0.0112 C2.1463,0.0112 0.9993,1.1562 0.9993,2.5642 L0.9993,15.4822 C0.9993,16.8902 2.1463,18.0362 3.5543,18.0362 L12.0933,18.0362 L12.0933,20.6982 L6.6133,20.6982 C6.1153,20.6982 5.7123,21.1002 5.7123,21.5982 C5.7123,22.0952 6.1153,22.4982 6.6133,22.4982 L19.3723,22.4982 C19.8703,22.4982 20.2723,22.0952 20.2723,21.5982 C20.2723,21.1002 19.8703,20.6982 19.3723,20.6982 L13.8933,20.6982 L13.8933,18.0362 L22.4313,18.0362 C23.8393,18.0362 24.9853,16.8902 24.9853,15.4822 L24.9853,2.5652 C24.9853,1.1572 23.8393,0.0112 22.4313,0.0112 Z" id="Fill-3"></path>
                </g>
            </g>
        </g>
    </g>
</svg>