<svg width="29px" height="29px" viewBox="0 0 29 29" version="1.1" xmlns="http://www.w3.org/2000/svg" xmlns:xlink="http://www.w3.org/1999/xlink">
    <g id="Symbols" stroke="none" stroke-width="1" fill="none" fill-rule="evenodd">
        <g id="open-position-card" transform="translate(-31.000000, -36.000000)" fill="#3595F2">
            <g id="Fill-1">
                <path d="M33.3933317,61.7455078 L33.3933317,47.9379142 L35.9015433,53.2666191 C36.1001898,53.6823673 36.5214162,53.9508219 36.9857225,53.9508219 L54.0142775,53.9508219 C54.4809771,53.9508219 54.9022035,53.6823673 55.0984567,53.2666191 L57.6066683,47.9402899 L57.6066683,61.7455078 L33.3933317,61.7455078 Z M40.4321202,43.7804317 L50.5678798,43.7804317 L56.9245688,43.7804317 L53.253198,51.5751176 L37.7491953,51.5751176 L34.0778245,43.7804317 L40.4321202,43.7804317 Z M41.628786,40.2762678 C41.628786,39.2285822 42.4879921,38.3757043 43.5434513,38.3757043 L47.4565487,38.3757043 C48.5120079,38.3757043 49.371214,39.2285822 49.371214,40.2762678 L49.371214,41.4047273 L41.628786,41.4047273 L41.628786,40.2762678 Z M59.99282,42.5498168 C59.9904267,42.499927 59.97128,42.4571644 59.9641,42.4096503 C59.9401667,42.2742351 59.9042667,42.1459471 59.8372534,42.0295376 C59.8252868,42.0057805 59.8276801,41.9772721 59.8133201,41.953515 C59.7965668,41.9273823 59.7630602,41.9155038 59.7415202,41.889371 C59.6625402,41.7824643 59.5692003,41.696939 59.4567137,41.6232921 C59.4136337,41.5947837 59.3777338,41.5615238 59.3298671,41.5401425 C59.1719072,41.4593685 58.9948007,41.4047273 58.8033342,41.4047273 L51.7645457,41.4047273 L51.7645457,40.2762678 C51.7645457,37.9195691 49.833127,36 47.4565487,36 L43.5434513,36 C41.1692663,36 39.2354543,37.9195691 39.2354543,40.2762678 L39.2354543,41.4047273 L32.1966658,41.4047273 C32.0051993,41.4047273 31.8304861,41.4593685 31.6701329,41.5401425 C31.6222662,41.5615238 31.5863663,41.5947837 31.5432863,41.6232921 C31.433193,41.696939 31.3374598,41.7824643 31.2584798,41.889371 C31.2369398,41.9155038 31.2034332,41.9273823 31.1866799,41.953515 C31.1723199,41.9772721 31.1747132,42.0057805 31.1627466,42.0295376 C31.0981266,42.1459471 31.05744,42.2742351 31.0359,42.412026 C31.02872,42.4595401 31.0095733,42.5023027 31.00718,42.5498168 C31.00718,42.5640711 31,42.5783253 31,42.5925795 L31,62.93336 C31,63.5890544 31.5361063,64.1212121 32.1966658,64.1212121 L58.8033342,64.1212121 C59.466287,64.1212121 60,63.5890544 60,62.93336 L60,42.5925795 C60,42.5783253 59.99282,42.5640711 59.99282,42.5498168 Z"></path>
            </g>
        </g>
    </g>
</svg>