<svg width="114px" height="20px" viewBox="0 0 114 20" version="1.1" xmlns="http://www.w3.org/2000/svg" xmlns:xlink="http://www.w3.org/1999/xlink">
    <defs>
        <polygon id="path-1" points="56.9335201 19.8271 0 19.8271 0 0.0001 56.9335201 0.0001 113.86704 0.0001 113.86704 19.8271"></polygon>
    </defs>
    <g id="Symbols" stroke="none" stroke-width="1" fill="none" fill-rule="evenodd">
        <g id="Header-new-1" transform="translate(-28.000000, -31.000000)">
            <g id="Group-6" transform="translate(0.000000, 3.000000)">
                <g id="Page-1" transform="translate(28.000000, 28.000000)">
                    <mask id="mask-2" fill="white">
                        <use xlink:href="#path-1"></use>
                    </mask>
                    <g id="Clip-2"></g>
                    <path d="M8.70324788,19.8271 C4.81154873,19.8271 1.87266737,18.0081 -0.000120762712,15.9786 L1.78595975,13.6841 C3.40031568,15.08335 5.44579449,16.12635 7.92408686,16.12635 C9.4539089,16.12635 10.2891038,15.38135 10.2891038,14.5476 C10.2891038,13.5636 8.99114619,12.9391 6.05129873,11.7751 C2.33325636,10.31585 0.575917373,8.2591 0.575917373,5.81535 C0.575917373,2.7736 3.40031568,0.0001 7.92408686,0.0001 C11.355197,0.0001 14.4677352,1.6096 16.1975403,3.0136 L14.6401843,5.48785 C12.941053,4.4161 11.2112479,3.69935 8.81869703,3.69935 C7.72193008,3.69935 7.0029089,4.2056 7.0029089,4.92235 C7.0029089,5.5481 7.83834534,6.38185 10.404553,7.3351 C15.5917945,9.2726 17.0899767,11.7751 16.9482013,14.06985 C16.8020784,16.87285 13.9774386,19.8271 8.70324788,19.8271 L8.70324788,19.8271 Z M40.5971631,0.6041 L46.6121123,0.6041 L46.6121123,15.8501 L55.2922945,15.8501 L55.2922945,19.2526 L40.5971631,19.2526 L40.5971631,0.6041 Z M57.5824386,19.2491 L63.5973877,19.2491 L63.5973877,0.60285 L57.5824386,0.60285 L57.5824386,19.2491 Z M107.850883,19.25035 L113.86704,19.25035 L113.86704,0.6041 L107.850883,0.6041 L107.850883,19.25035 Z M99.2994343,19.2491 L92.8755826,10.4511 L92.8755826,19.2526 L86.8606335,19.2526 L86.8606335,0.6041 L96.9477013,0.6041 C102.282273,0.6041 104.712261,2.90085 104.712261,5.73685 C104.712261,8.53985 103.016511,10.03935 99.595303,10.5866 L105.854193,19.2491 L99.2994343,19.2491 Z M28.6329597,19.7281 C23.1334258,19.7281 18.6538538,16.24835 18.6538538,9.93135 C18.6538538,3.6131 23.1334258,0.09885 28.6329597,0.09885 C34.1315275,0.09885 38.6101335,3.6131 38.6101335,9.93135 C38.6101335,16.24835 34.1315275,19.7281 28.6329597,19.7281 L28.6329597,19.7281 Z M28.6329597,3.4481 C26.5679174,3.4481 24.8929386,5.4286 24.8929386,9.93335 C24.8929386,14.4351 26.5679174,16.3791 28.6329597,16.3791 C30.697036,16.3791 32.3729809,14.4351 32.3729809,9.93335 C32.3729809,5.4286 30.697036,3.4481 28.6329597,3.4481 L28.6329597,3.4481 Z M84.1572394,5.7221 C84.1572394,2.7041 81.9151589,0.58935 76.5793792,0.58935 L66.4923114,0.58935 L66.4923114,19.23785 L76.1736165,19.23785 C82.0591081,19.23785 84.9197352,16.5816 84.9197352,13.3291 C84.9197352,11.68985 83.8195869,9.72085 81.8204809,8.96535 C83.3184216,8.34085 84.1572394,7.03485 84.1572394,5.7221 L84.1572394,5.7221 Z M77.9816758,5.7211 C77.9816758,6.6766 77.0025318,7.42285 75.8219555,7.42285 L72.5072606,7.42285 L72.5072606,3.9906 L75.8219555,3.9906 C77.0025318,3.9906 77.9816758,4.7676 77.9816758,5.7211 L77.9816758,5.7211 Z M78.7596292,13.3291 C78.7596292,14.7011 77.3486377,15.83285 75.6197987,15.83285 L72.5072606,15.83285 L72.5072606,10.8231 L75.6197987,10.8231 C77.3486377,10.8231 78.7596292,11.9561 78.7596292,13.3291 L78.7596292,13.3291 Z M96.1902775,3.9906 L92.8755826,3.9906 L92.8755826,7.42285 L96.1902775,7.42285 C97.3708538,7.42285 98.3497564,6.6766 98.3497564,5.7211 C98.3497564,4.7676 97.3708538,3.9906 96.1902775,3.9906 L96.1902775,3.9906 Z" id="Fill-1" fill="#FEFEFE" mask="url(#mask-2)"></path>
                </g>
            </g>
        </g>
    </g>
</svg>